sim/week02_timer/dump.vcd
$version Generated by VerilatedVcd $end
$timescale 1ps $end
 $scope module  $end
  $var wire 1 # ACLK $end
  $var wire 1 $ ARESETn $end
  $var wire 6 % saxi_awaddr [5:0] $end
  $var wire 1 & saxi_awvalid $end
  $var wire 1 ' saxi_awready $end
  $var wire 32 ( saxi_wdata [31:0] $end
  $var wire 4 ) saxi_wstrb [3:0] $end
  $var wire 1 * saxi_wvalid $end
  $var wire 1 + saxi_wready $end
  $var wire 2 , saxi_bresp [1:0] $end
  $var wire 1 - saxi_bvalid $end
  $var wire 1 . saxi_bready $end
  $var wire 6 / saxi_araddr [5:0] $end
  $var wire 1 0 saxi_arvalid $end
  $var wire 1 1 saxi_arready $end
  $var wire 32 2 saxi_rdata [31:0] $end
  $var wire 2 3 saxi_rresp [1:0] $end
  $var wire 1 4 saxi_rvalid $end
  $var wire 1 5 saxi_rready $end
  $var wire 1 6 pwm_out $end
  $scope module smart_timer_axil $end
   $var wire 32 i ADDR_WIDTH [31:0] $end
   $var wire 32 j DATA_WIDTH [31:0] $end
   $var wire 1 7 ACLK $end
   $var wire 1 8 ARESETn $end
   $var wire 6 9 saxi_awaddr [5:0] $end
   $var wire 1 : saxi_awvalid $end
   $var wire 1 ; saxi_awready $end
   $var wire 32 < saxi_wdata [31:0] $end
   $var wire 4 = saxi_wstrb [3:0] $end
   $var wire 1 > saxi_wvalid $end
   $var wire 1 ? saxi_wready $end
   $var wire 2 @ saxi_bresp [1:0] $end
   $var wire 1 A saxi_bvalid $end
   $var wire 1 B saxi_bready $end
   $var wire 6 C saxi_araddr [5:0] $end
   $var wire 1 D saxi_arvalid $end
   $var wire 1 E saxi_arready $end
   $var wire 32 F saxi_rdata [31:0] $end
   $var wire 2 G saxi_rresp [1:0] $end
   $var wire 1 H saxi_rvalid $end
   $var wire 1 I saxi_rready $end
   $var wire 1 J pwm_out $end
   $var wire 2 k OKAY [1:0] $end
   $var wire 2 l SLVERR [1:0] $end
   $var wire 1 K aw_hs_done $end
   $var wire 6 L awaddr_q [5:0] $end
   $var wire 1 M w_hs_done $end
   $var wire 32 N wdata_q [31:0] $end
   $var wire 4 O wstrb_q [3:0] $end
   $var wire 1 P ar_hs_done $end
   $var wire 6 Q araddr_q [5:0] $end
   $var wire 1 R do_write $end
   $var wire 2 S word_sel_w [1:0] $end
   $var wire 2 T word_sel_r [1:0] $end
   $var wire 1 U ctrl_en $end
   $var wire 1 V ctrl_rst_pulse $end
   $var wire 32 W period_shadow [31:0] $end
   $var wire 32 X period_active [31:0] $end
   $var wire 32 Y duty_shadow [31:0] $end
   $var wire 32 Z duty_active [31:0] $end
   $var wire 1 [ upd_pending $end
   $var wire 1 \ status_wrap $end
   $var wire 32 m PERIOD_RST [31:0] $end
   $var wire 32 n DUTY_RST [31:0] $end
   $var wire 32 ] i [31:0] $end
   $var wire 1 ^ rstn_core $end
   $var wire 1 _ wrap_pulse $end
   $scope module u_pwm $end
    $var wire 1 ` clk $end
    $var wire 1 a rstn $end
    $var wire 1 b en $end
    $var wire 32 c period [31:0] $end
    $var wire 32 d duty [31:0] $end
    $var wire 1 e pwm_out $end
    $var wire 1 f wrap $end
    $var wire 32 g cnt [31:0] $end
    $var wire 32 h duty_clip [31:0] $end
   $upscope $end
  $upscope $end
 $upscope $end
$enddefinitions $end


#0
1#
0$
b000000 %
0&
0'
b00000000000000000000000000000000 (
b0000 )
0*
0+
b00 ,
0-
0.
b000000 /
00
01
b00000000000000000000000000000000 2
b00 3
04
05
06
17
08
b000000 9
0:
0;
b00000000000000000000000000000000 <
b0000 =
0>
0?
b00 @
0A
0B
b000000 C
0D
0E
b00000000000000000000000000000000 F
b00 G
0H
0I
0J
0K
b000000 L
0M
b00000000000000000000000000000000 N
b0000 O
0P
b000000 Q
0R
b00 S
b00 T
0U
0V
b00000000000000000000000011111111 W
b00000000000000000000000011111111 X
b00000000000000000000000000000000 Y
b00000000000000000000000000000000 Z
0[
0\
b00000000000000000000000000000000 ]
0^
0_
1`
0a
0b
b00000000000000000000000011111111 c
b00000000000000000000000000000000 d
0e
0f
b00000000000000000000000000000000 g
b00000000000000000000000000000000 h
b00000000000000000000000000000110 i
b00000000000000000000000000100000 j
b00 k
b10 l
b00000000000000000000000011111111 m
b00000000000000000000000000000000 n
#5000
0#
07
0`
#10000
1#
17
1`
#15000
0#
07
0`
#20000
1#
17
1`
#25000
0#
07
0`
#30000
1#
17
1`
#35000
0#
07
0`
#40000
1#
1$
1'
1+
11
17
18
1;
1?
1E
1^
1`
1a
#45000
0#
07
0`
#50000
1#
17
1`
#55000
0#
07
0`
#60000
1#
17
1`
#65000
0#
07
0`
#70000
1#
1&
b1111 )
1*
1.
15
17
1:
b1111 =
1>
1B
1I
1`
#75000
0#
07
0`
#80000
1#
0&
0'
0*
0+
17
0:
0;
0>
0?
1K
1M
b1111 O
1R
1`
#85000
0#
07
0`
#90000
1#
1-
17
1A
0R
1`
#95000
0#
07
0`
#100000
1#
1'
1+
0-
17
1;
1?
0A
0K
0M
1`
#105000
0#
07
0`
#110000
1#
10
17
1D
1`
#115000
0#
07
0`
#120000
1#
00
01
14
17
0D
0E
1H
1P
1`
#125000
0#
07
0`
#130000
1#
11
04
17
1E
0H
0P
1`
#135000
0#
07
0`
#140000
1#
b000100 %
1&
b00000000000000000000000000001001 (
1*
17
b000100 9
1:
b00000000000000000000000000001001 <
1>
1`
#145000
0#
07
0`
#150000
1#
0&
0'
0*
0+
17
0:
0;
0>
0?
1K
b000100 L
1M
b00000000000000000000000000001001 N
1R
b01 S
1`
#155000
0#
07
0`
#160000
1#
1-
17
1A
0R
b00000000000000000000000000001001 W
b00000000000000000000000000000100 ]
1`
#165000
0#
07
0`
#170000
1#
1'
1+
0-
17
1;
1?
0A
0K
0M
b00000000000000000000000000001001 X
1`
b00000000000000000000000000001001 c
#175000
0#
07
0`
#180000
1#
b001000 %
1&
b00000000000000000000000000000011 (
1*
17
b001000 9
1:
b00000000000000000000000000000011 <
1>
1`
#185000
0#
07
0`
#190000
1#
0&
0'
0*
0+
17
0:
0;
0>
0?
1K
b001000 L
1M
b00000000000000000000000000000011 N
1R
b10 S
1`
#195000
0#
07
0`
#200000
1#
1-
17
1A
0R
b00000000000000000000000000000011 Y
1`
#205000
0#
07
0`
#210000
1#
1'
1+
0-
17
1;
1?
0A
0K
0M
b00000000000000000000000000000011 Z
1`
b00000000000000000000000000000011 d
b00000000000000000000000000000011 h
#215000
0#
07
0`
#220000
1#
b000100 /
10
16
17
b000100 C
1D
1J
1`
1e
#225000
0#
07
0`
#230000
1#
00
01
b00000000000000000000000000001001 2
14
17
0D
0E
b00000000000000000000000000001001 F
1H
1P
b000100 Q
b01 T
1`
#235000
0#
07
0`
#240000
1#
11
04
17
1E
0H
0P
1`
#245000
0#
07
0`
#250000
1#
b000000 %
1&
b00000000000000000000000000000001 (
1*
17
b000000 9
1:
b00000000000000000000000000000001 <
1>
1`
#255000
0#
07
0`
#260000
1#
0&
0'
0*
0+
17
0:
0;
0>
0?
1K
b000000 L
1M
b00000000000000000000000000000001 N
1R
b00 S
1`
#265000
0#
07
0`
#270000
1#
1-
17
1A
0R
1U
1`
1b
#275000
0#
07
0`
#280000
1#
1'
1+
0-
17
1;
1?
0A
0K
0M
1`
b00000000000000000000000000000001 g
#285000
0#
07
0`
#290000
1#
b001100 /
10
17
b001100 C
1D
1`
b00000000000000000000000000000010 g
#295000
0#
07
0`
#300000
1#
00
01
b00000000000000000000000000000000 2
14
17
0D
0E
b00000000000000000000000000000000 F
1H
1P
b001100 Q
b11 T
1`
b00000000000000000000000000000011 g
#305000
0#
07
0`
#310000
1#
11
04
06
17
1E
0H
0J
0P
1`
0e
b00000000000000000000000000000100 g
#315000
0#
07
0`
#320000
1#
17
1`
b00000000000000000000000000000101 g
#325000
0#
07
0`
#330000
1#
10
17
1D
1`
b00000000000000000000000000000110 g
#335000
0#
07
0`
#340000
1#
00
01
14
17
0D
0E
1H
1P
1`
b00000000000000000000000000000111 g
#345000
0#
07
0`
#350000
1#
11
04
17
1E
0H
0P
1`
b00000000000000000000000000001000 g
#355000
0#
07
0`
#360000
1#
17
1`
b00000000000000000000000000001001 g
#365000
0#
07
0`
#370000
1#
10
17
1D
1_
1`
1f
b00000000000000000000000000000000 g
#375000
0#
07
0`
#380000
1#
00
01
14
16
17
0D
0E
1H
1J
1P
1\
0_
1`
1e
0f
b00000000000000000000000000000001 g
#385000
0#
07
0`
#390000
1#
11
04
17
1E
0H
0P
1`
b00000000000000000000000000000010 g
#395000
0#
07
0`
#400000
1#
17
1`
b00000000000000000000000000000011 g
#405000
0#
07
0`
#410000
1#
10
06
17
1D
0J
1`
0e
b00000000000000000000000000000100 g
#415000
0#
07
0`
#420000
1#
00
01
b00000000000000000000000000000001 2
14
17
0D
0E
b00000000000000000000000000000001 F
1H
1P
1`
b00000000000000000000000000000101 g
#425000
0#
07
0`
#430000
1#
11
04
17
1E
0H
0P
1`
b00000000000000000000000000000110 g
#430001
0$
0'
0+
01
b00000000000000000000000000000000 2
08
0;
0?
0E
b00000000000000000000000000000000 F
b00000000000000000000000000000000 N
b0000 O
b000000 Q
b00 T
0U
b00000000000000000000000011111111 W
b00000000000000000000000011111111 X
b00000000000000000000000000000000 Y
b00000000000000000000000000000000 Z
0\
0^
0a
0b
b00000000000000000000000011111111 c
b00000000000000000000000000000000 d
b00000000000000000000000000000000 g
b00000000000000000000000000000000 h
#435000
#435001
0#
07
0`
#440001
1#
17
1`
#445001
0#
07
0`
#450001
1#
17
1`
#455001
0#
07
0`
#460001
1#
17
1`
#465001
0#
07
0`
#470001
1#
17
1`
#475001
0#
07
0`
#480001
1#
1$
1'
1+
11
17
18
1;
1?
1E
1^
1`
1a
#485001
0#
07
0`
#490001
1#
17
1`
#495001
0#
07
0`
#500001
1#
b00000000000000000000000000000000 (
b0000 )
0.
b000000 /
05
17
b00000000000000000000000000000000 <
b0000 =
0B
b000000 C
0I
1`
#505001
0#
07
0`
#510001
1#
b000100 %
1&
b00000000000000000000000000001010 (
b1111 )
1*
1.
15
17
b000100 9
1:
b00000000000000000000000000001010 <
b1111 =
1>
1B
1I
1`
#515001
0#
07
0`
#520001
1#
0&
0'
0*
0+
17
0:
0;
0>
0?
1K
b000100 L
1M
b00000000000000000000000000001010 N
b1111 O
1R
b01 S
1`
#525001
0#
07
0`
#530001
1#
1-
17
1A
0R
b00000000000000000000000000001010 W
1`
#535001
0#
07
0`
#540001
1#
1'
1+
0-
17
1;
1?
0A
0K
0M
b00000000000000000000000000001010 X
1`
b00000000000000000000000000001010 c
#545001
0#
07
0`
#550001
1#
b001000 %
1&
b00000000000000000000000000000100 (
1*
17
b001000 9
1:
b00000000000000000000000000000100 <
1>
1`
#555001
0#
07
0`
#560001
1#
0&
0'
0*
0+
17
0:
0;
0>
0?
1K
b001000 L
1M
b00000000000000000000000000000100 N
1R
b10 S
1`
#565001
0#
07
0`
#570001
1#
1-
17
1A
0R
b00000000000000000000000000000100 Y
1`
#575001
0#
07
0`
#580001
1#
1'
1+
0-
17
1;
1?
0A
0K
0M
b00000000000000000000000000000100 Z
1`
b00000000000000000000000000000100 d
b00000000000000000000000000000100 h
#585001
0#
07
0`
#590001
1#
b000000 %
1&
b00000000000000000000000000000001 (
1*
16
17
b000000 9
1:
b00000000000000000000000000000001 <
1>
1J
1`
1e
#595001
0#
07
0`
#600001
1#
0&
0'
0*
0+
17
0:
0;
0>
0?
1K
b000000 L
1M
b00000000000000000000000000000001 N
1R
b00 S
1`
#605001
0#
07
0`
#610001
1#
1-
17
1A
0R
1U
1`
1b
#615001
0#
07
0`
#620001
1#
1'
1+
0-
17
1;
1?
0A
0K
0M
1`
b00000000000000000000000000000001 g
#625001
0#
07
0`
#630001
1#
17
1`
b00000000000000000000000000000010 g
#635001
0#
07
0`
#640001
1#
17
1`
b00000000000000000000000000000011 g
#645001
0#
07
0`
#650001
1#
17
1`
b00000000000000000000000000000100 g
#655001
0#
07
0`
#660001
1#
06
17
0J
1`
0e
b00000000000000000000000000000101 g
#665001
0#
07
0`
#670001
1#
17
1`
b00000000000000000000000000000110 g
#675001
0#
07
0`
#680001
1#
17
1`
b00000000000000000000000000000111 g
#685001
0#
07
0`
#690001
1#
17
1`
b00000000000000000000000000001000 g
#695001
0#
07
0`
#700001
1#
17
1`
b00000000000000000000000000001001 g
#705001
0#
07
0`
#710001
1#
17
1`
b00000000000000000000000000001010 g
#715001
0#
07
0`
#720001
1#
17
1_
1`
1f
b00000000000000000000000000000000 g
#725001
0#
07
0`
#730001
1#
16
17
1J
1\
0_
1`
1e
0f
b00000000000000000000000000000001 g
#735001
0#
07
0`
#740001
1#
b001100 /
10
17
b001100 C
1D
1`
b00000000000000000000000000000010 g
#745001
0#
07
0`
#750001
1#
00
01
b00000000000000000000000000000001 2
14
17
0D
0E
b00000000000000000000000000000001 F
1H
1P
b001100 Q
b11 T
1`
b00000000000000000000000000000011 g
#755001
0#
07
0`
#760001
1#
11
04
17
1E
0H
0P
1`
b00000000000000000000000000000100 g
#765001
0#
07
0`
#770001
1#
1&
b00000000000000000000000000000000 (
b0001 )
1*
06
17
1:
b00000000000000000000000000000000 <
b0001 =
1>
0J
1`
0e
b00000000000000000000000000000101 g
#775001
0#
07
0`
#780001
1#
0&
0'
0*
0+
17
0:
0;
0>
0?
1K
1M
b00000000000000000000000000000000 N
b0001 O
1R
1`
b00000000000000000000000000000110 g
#785001
0#
07
0`
#790001
1#
1-
17
1A
0R
0U
1`
0b
b00000000000000000000000000000111 g
#795001
0#
07
0`
#800001
1#
1'
1+
0-
17
1;
1?
0A
0K
0M
1`
b00000000000000000000000000000000 g
#805001
0#
07
0`
#810001
1#
b001100 %
1&
b00000000000000000000000000000001 (
b1111 )
1*
16
17
b001100 9
1:
b00000000000000000000000000000001 <
b1111 =
1>
1J
1`
1e
#815001
0#
07
0`
#820001
1#
0&
0'
0*
0+
17
0:
0;
0>
0?
1K
b001100 L
1M
b00000000000000000000000000000001 N
b1111 O
1R
b11 S
1`
#825001
0#
07
0`
#830001
1#
1-
17
1A
0R
0\
1`
#835001
0#
07
0`
#840001
1#
1'
1+
0-
17
1;
1?
0A
0K
0M
1`
#845001
0#
07
0`
#850001
1#
10
17
1D
1`
#855001
0#
07
0`
#860001
1#
00
01
b00000000000000000000000000000000 2
14
17
0D
0E
b00000000000000000000000000000000 F
1H
1P
1`
#865001
0#
07
0`
#870001
1#
11
04
17
1E
0H
0P
1`
#870002
0$
0'
0+
01
06
08
0;
0?
0E
0J
b000000 L
b00000000000000000000000000000000 N
b0000 O
b000000 Q
b00 S
b00 T
b00000000000000000000000011111111 W
b00000000000000000000000011111111 X
b00000000000000000000000000000000 Y
b00000000000000000000000000000000 Z
0^
0a
b00000000000000000000000011111111 c
b00000000000000000000000000000000 d
0e
b00000000000000000000000000000000 h
#875001
#875002
0#
07
0`
#880002
1#
17
1`
#885002
0#
07
0`
#890002
1#
17
1`
#895002
0#
07
0`
#900002
1#
17
1`
#905002
0#
07
0`
#910002
1#
17
1`
#915002
0#
07
0`
#920002
1#
1$
1'
1+
11
17
18
1;
1?
1E
1^
1`
1a
#925002
0#
07
0`
#930002
1#
17
1`
#935002
0#
07
0`
#940002
1#
b000000 %
b00000000000000000000000000000000 (
b0000 )
0.
b000000 /
05
17
b000000 9
b00000000000000000000000000000000 <
b0000 =
0B
b000000 C
0I
1`
#945002
0#
07
0`
#950002
1#
1&
b00000000000000000000000000000010 (
b1111 )
1*
1.
15
17
1:
b00000000000000000000000000000010 <
b1111 =
1>
1B
1I
1`
#955002
0#
07
0`
#960002
1#
0&
0'
0*
0+
17
0:
0;
0>
0?
1K
1M
b00000000000000000000000000000010 N
b1111 O
1R
1`
#965002
0#
07
0`
#970002
1#
1-
17
1A
0R
1V
0^
1`
0a
#975002
0#
07
0`
#980002
1#
1'
1+
0-
17
1;
1?
0A
0K
0M
0V
1^
1`
1a
#985002
0#
07
0`
#990002
1#
10
17
1D
1`
#995002
0#
07
0`
#1000002
1#
00
01
14
17
0D
0E
1H
1P
1`
#1005002
0#
07
0`
#1010002
1#
11
04
17
1E
0H
0P
1`
#1010003
0$
0'
0+
01
08
0;
0?
0E
b00000000000000000000000000000000 N
b0000 O
0^
0a
#1015002
#1015003
0#
07
0`
#1020003
1#
17
1`
#1025003
0#
07
0`
#1030003
1#
17
1`
#1035003
0#
07
0`
#1040003
1#
17
1`
#1045003
0#
07
0`
#1050003
1#
17
1`
#1055003
0#
07
0`
#1060003
1#
1$
1'
1+
11
17
18
1;
1?
1E
1^
1`
1a
#1065003
0#
07
0`
#1070003
1#
17
1`
#1075003
0#
07
0`
#1080003
1#
b00000000000000000000000000000000 (
b0000 )
0.
05
17
b00000000000000000000000000000000 <
b0000 =
0B
0I
1`
#1085003
0#
07
0`
#1090003
1#
1&
b1111 )
1*
1.
15
17
1:
b1111 =
1>
1B
1I
1`
#1095003
0#
07
0`
#1100003
1#
0&
0'
0*
0+
17
0:
0;
0>
0?
1K
1M
b1111 O
1R
1`
#1105003
0#
07
0`
#1110003
1#
1-
17
1A
0R
1`
#1115003
0#
07
0`
#1120003
1#
1'
1+
0-
17
1;
1?
0A
0K
0M
1`
#1125003
0#
07
0`
#1130003
1#
b000100 %
1&
b00000000000000000000000000001111 (
1*
17
b000100 9
1:
b00000000000000000000000000001111 <
1>
1`
#1135003
0#
07
0`
#1140003
1#
0&
0'
0*
0+
17
0:
0;
0>
0?
1K
b000100 L
1M
b00000000000000000000000000001111 N
1R
b01 S
1`
#1145003
0#
07
0`
#1150003
1#
1-
17
1A
0R
b00000000000000000000000000001111 W
1`
#1155003
0#
07
0`
#1160003
1#
1'
1+
0-
17
1;
1?
0A
0K
0M
b00000000000000000000000000001111 X
1`
b00000000000000000000000000001111 c
#1165003
0#
07
0`
#1170003
1#
b001000 %
1&
b00000000000000000000000000000100 (
1*
17
b001000 9
1:
b00000000000000000000000000000100 <
1>
1`
#1175003
0#
07
0`
#1180003
1#
0&
0'
0*
0+
17
0:
0;
0>
0?
1K
b001000 L
1M
b00000000000000000000000000000100 N
1R
b10 S
1`
#1185003
0#
07
0`
#1190003
1#
1-
17
1A
0R
b00000000000000000000000000000100 Y
1`
#1195003
0#
07
0`
#1200003
1#
1'
1+
0-
17
1;
1?
0A
0K
0M
b00000000000000000000000000000100 Z
1`
b00000000000000000000000000000100 d
b00000000000000000000000000000100 h
#1205003
0#
07
0`
#1210003
1#
b000000 %
1&
b00000000000000000000000000000001 (
1*
16
17
b000000 9
1:
b00000000000000000000000000000001 <
1>
1J
1`
1e
#1215003
0#
07
0`
#1220003
1#
0&
0'
0*
0+
17
0:
0;
0>
0?
1K
b000000 L
1M
b00000000000000000000000000000001 N
1R
b00 S
1`
#1225003
0#
07
0`
#1230003
1#
1-
17
1A
0R
1U
1`
1b
#1235003
0#
07
0`
#1240003
1#
1'
1+
0-
17
1;
1?
0A
0K
0M
1`
b00000000000000000000000000000001 g
#1245003
0#
07
0`
#1250003
1#
17
1`
b00000000000000000000000000000010 g
#1255003
0#
07
0`
#1260003
1#
17
1`
b00000000000000000000000000000011 g
#1265003
0#
07
0`
#1270003
1#
17
1`
b00000000000000000000000000000100 g
#1275003
0#
07
0`
#1280003
1#
06
17
0J
1`
0e
b00000000000000000000000000000101 g
#1285003
0#
07
0`
#1290003
1#
17
1`
b00000000000000000000000000000110 g
#1295003
0#
07
0`
#1300003
1#
17
1`
b00000000000000000000000000000111 g
#1305003
0#
07
0`
#1310003
1#
17
1`
b00000000000000000000000000001000 g
#1315003
0#
07
0`
#1320003
1#
17
1`
b00000000000000000000000000001001 g
#1325003
0#
07
0`
#1330003
1#
17
1`
b00000000000000000000000000001010 g
#1335003
0#
07
0`
#1340003
1#
17
1`
b00000000000000000000000000001011 g
#1345003
0#
07
0`
#1350003
1#
b001000 %
1&
b00000000000000000000000000001010 (
1*
17
b001000 9
1:
b00000000000000000000000000001010 <
1>
1`
b00000000000000000000000000001100 g
#1355003
0#
07
0`
#1360003
1#
0&
0'
0*
0+
17
0:
0;
0>
0?
1K
b001000 L
1M
b00000000000000000000000000001010 N
1R
b10 S
1`
b00000000000000000000000000001101 g
#1365003
0#
07
0`
#1370003
1#
1-
17
1A
0R
b00000000000000000000000000001010 Y
1[
1`
b00000000000000000000000000001110 g
#1375003
0#
07
0`
#1380003
1#
1'
1+
0-
17
1;
1?
0A
0K
0M
1`
b00000000000000000000000000001111 g
#1385003
0#
07
0`
#1390003
1#
b001100 /
10
17
b001100 C
1D
1_
1`
1f
b00000000000000000000000000000000 g
#1395003
0#
07
0`
#1400003
1#
00
01
b00000000000000000000000000000010 2
14
16
17
0D
0E
b00000000000000000000000000000010 F
1H
1J
1P
b001100 Q
b11 T
1\
0_
1`
1e
0f
b00000000000000000000000000000001 g
#1405003
0#
07
0`
#1410003
1#
11
04
17
1E
0H
0P
b00000000000000000000000000001010 Z
0[
1`
b00000000000000000000000000001010 d
b00000000000000000000000000000010 g
b00000000000000000000000000001010 h
#1415003
0#
07
0`
#1420003
1#
10
17
1D
1`
b00000000000000000000000000000011 g
#1425003
0#
07
0`
#1430003
1#
00
01
b00000000000000000000000000000001 2
14
17
0D
0E
b00000000000000000000000000000001 F
1H
1P
1`
b00000000000000000000000000000100 g
#1435003
0#
07
0`
#1440003
1#
11
04
17
1E
0H
0P
1`
b00000000000000000000000000000101 g
#1445003
0#
07
0`
#1450003
1#
b001100 %
1&
b00000000000000000000000000000001 (
1*
17
b001100 9
1:
b00000000000000000000000000000001 <
1>
1`
b00000000000000000000000000000110 g
#1455003
0#
07
0`
#1460003
1#
0&
0'
0*
0+
17
0:
0;
0>
0?
1K
b001100 L
1M
b00000000000000000000000000000001 N
1R
b11 S
1`
b00000000000000000000000000000111 g
#1465003
0#
07
0`
#1470003
1#
1-
17
1A
0R
0\
1`
b00000000000000000000000000001000 g
#1475003
0#
07
0`
#1480003
1#
1'
1+
0-
17
1;
1?
0A
0K
0M
1`
b00000000000000000000000000001001 g
