sim/week00_basics/dump.vcd
$version Generated by VerilatedVcd $end
$timescale 1ps $end
 $scope module  $end
  $var wire 1 # clk $end
  $var wire 1 $ rstn $end
  $var wire 1 % en $end
  $var wire 8 & q [7:0] $end
  $scope module counter $end
   $var wire 32 + WIDTH [31:0] $end
   $var wire 1 ' clk $end
   $var wire 1 ( rstn $end
   $var wire 1 ) en $end
   $var wire 8 * q [7:0] $end
  $upscope $end
 $upscope $end
$enddefinitions $end


#0
1#
0$
0%
b00000000 &
1'
0(
0)
b00000000 *
b00000000000000000000000000001000 +
#5000
0#
0'
#10000
1#
1'
#15000
0#
1$
0'
1(
#20000
1#
1'
#25000
0#
1%
0'
1)
#30000
1#
b00000001 &
1'
b00000001 *
#35000
0#
0'
#40000
1#
b00000010 &
1'
b00000010 *
#45000
0#
0'
#50000
1#
b00000011 &
1'
b00000011 *
#55000
0#
0'
#60000
1#
b00000100 &
1'
b00000100 *
#65000
0#
0'
#70000
1#
b00000101 &
1'
b00000101 *
#75000
0#
0%
0'
0)
#80000
1#
1'
#85000
0#
0'
#90000
1#
1'
#95000
0#
0'
#100000
1#
1'
#105000
0#
1%
0'
1)
#110000
1#
b00000110 &
1'
b00000110 *
#115000
0#
0'
#120000
1#
b00000111 &
1'
b00000111 *
#125000
0#
0'
#125001
1#
0$
0%
b00000000 &
1'
0(
0)
b00000000 *
#130000
#130001
0#
0'
#135001
1#
1'
#140001
0#
1$
0'
1(
#145001
1#
1'
#150001
0#
1%
0'
1)
#155001
1#
b00000001 &
1'
b00000001 *
#160001
0#
0'
#165001
1#
b00000010 &
1'
b00000010 *
#170001
0#
0'
#175001
1#
b00000011 &
1'
b00000011 *
#180001
0#
0'
#185001
1#
b00000100 &
1'
b00000100 *
#190001
0#
0'
#195001
1#
b00000101 &
1'
b00000101 *
#200001
0#
0'
#205001
1#
b00000110 &
1'
b00000110 *
#210001
0#
0'
#215001
1#
b00000111 &
1'
b00000111 *
#220001
0#
0'
#225001
1#
b00001000 &
1'
b00001000 *
#230001
0#
0'
#235001
1#
b00001001 &
1'
b00001001 *
#240001
0#
0'
#245001
1#
b00001010 &
1'
b00001010 *
#250001
0#
0'
#255001
1#
b00001011 &
1'
b00001011 *
#260001
0#
0'
#265001
1#
b00001100 &
1'
b00001100 *
#270001
0#
0'
#275001
1#
b00001101 &
1'
b00001101 *
#280001
0#
0'
#285001
1#
b00001110 &
1'
b00001110 *
#290001
0#
0'
#295001
1#
b00001111 &
1'
b00001111 *
#300001
0#
0'
#305001
1#
b00010000 &
1'
b00010000 *
#310001
0#
0'
#315001
1#
b00010001 &
1'
b00010001 *
#320001
0#
0'
#325001
1#
b00010010 &
1'
b00010010 *
#330001
0#
0'
#335001
1#
b00010011 &
1'
b00010011 *
#340001
0#
0'
#345001
1#
b00010100 &
1'
b00010100 *
#350001
0#
0'
#355001
1#
b00010101 &
1'
b00010101 *
#360001
0#
0'
#365001
1#
b00010110 &
1'
b00010110 *
#370001
0#
0'
#375001
1#
b00010111 &
1'
b00010111 *
#380001
0#
0'
#385001
1#
b00011000 &
1'
b00011000 *
#390001
0#
0'
#395001
1#
b00011001 &
1'
b00011001 *
#400001
0#
0'
#405001
1#
b00011010 &
1'
b00011010 *
#410001
0#
0'
#415001
1#
b00011011 &
1'
b00011011 *
#420001
0#
0'
#425001
1#
b00011100 &
1'
b00011100 *
#430001
0#
0'
#435001
1#
b00011101 &
1'
b00011101 *
#440001
0#
0'
#445001
1#
b00011110 &
1'
b00011110 *
#450001
0#
0'
#455001
1#
b00011111 &
1'
b00011111 *
#460001
0#
0'
#465001
1#
b00100000 &
1'
b00100000 *
#470001
0#
0'
#475001
1#
b00100001 &
1'
b00100001 *
#480001
0#
0'
#485001
1#
b00100010 &
1'
b00100010 *
#490001
0#
0'
#495001
1#
b00100011 &
1'
b00100011 *
#500001
0#
0'
#505001
1#
b00100100 &
1'
b00100100 *
#510001
0#
0'
#515001
1#
b00100101 &
1'
b00100101 *
#520001
0#
0'
#525001
1#
b00100110 &
1'
b00100110 *
#530001
0#
0'
#535001
1#
b00100111 &
1'
b00100111 *
#540001
0#
0'
#545001
1#
b00101000 &
1'
b00101000 *
#550001
0#
0'
#555001
1#
b00101001 &
1'
b00101001 *
#560001
0#
0'
#565001
1#
b00101010 &
1'
b00101010 *
#570001
0#
0'
#575001
1#
b00101011 &
1'
b00101011 *
#580001
0#
0'
#585001
1#
b00101100 &
1'
b00101100 *
#590001
0#
0'
#595001
1#
b00101101 &
1'
b00101101 *
#600001
0#
0'
#605001
1#
b00101110 &
1'
b00101110 *
#610001
0#
0'
#615001
1#
b00101111 &
1'
b00101111 *
#620001
0#
0'
#625001
1#
b00110000 &
1'
b00110000 *
#630001
0#
0'
#635001
1#
b00110001 &
1'
b00110001 *
#640001
0#
0'
#645001
1#
b00110010 &
1'
b00110010 *
#650001
0#
0'
#655001
1#
b00110011 &
1'
b00110011 *
#660001
0#
0'
#665001
1#
b00110100 &
1'
b00110100 *
#670001
0#
0'
#675001
1#
b00110101 &
1'
b00110101 *
#680001
0#
0'
#685001
1#
b00110110 &
1'
b00110110 *
#690001
0#
0'
#695001
1#
b00110111 &
1'
b00110111 *
#700001
0#
0'
#705001
1#
b00111000 &
1'
b00111000 *
#710001
0#
0'
#715001
1#
b00111001 &
1'
b00111001 *
#720001
0#
0'
#725001
1#
b00111010 &
1'
b00111010 *
#730001
0#
0'
#735001
1#
b00111011 &
1'
b00111011 *
#740001
0#
0'
#745001
1#
b00111100 &
1'
b00111100 *
#750001
0#
0'
#755001
1#
b00111101 &
1'
b00111101 *
#760001
0#
0'
#765001
1#
b00111110 &
1'
b00111110 *
#770001
0#
0'
#775001
1#
b00111111 &
1'
b00111111 *
#780001
0#
0'
#785001
1#
b01000000 &
1'
b01000000 *
#790001
0#
0'
#795001
1#
b01000001 &
1'
b01000001 *
#800001
0#
0'
#805001
1#
b01000010 &
1'
b01000010 *
#810001
0#
0'
#815001
1#
b01000011 &
1'
b01000011 *
#820001
0#
0'
#825001
1#
b01000100 &
1'
b01000100 *
#830001
0#
0'
#835001
1#
b01000101 &
1'
b01000101 *
#840001
0#
0'
#845001
1#
b01000110 &
1'
b01000110 *
#850001
0#
0'
#855001
1#
b01000111 &
1'
b01000111 *
#860001
0#
0'
#865001
1#
b01001000 &
1'
b01001000 *
#870001
0#
0'
#875001
1#
b01001001 &
1'
b01001001 *
#880001
0#
0'
#885001
1#
b01001010 &
1'
b01001010 *
#890001
0#
0'
#895001
1#
b01001011 &
1'
b01001011 *
#900001
0#
0'
#905001
1#
b01001100 &
1'
b01001100 *
#910001
0#
0'
#915001
1#
b01001101 &
1'
b01001101 *
#920001
0#
0'
#925001
1#
b01001110 &
1'
b01001110 *
#930001
0#
0'
#935001
1#
b01001111 &
1'
b01001111 *
#940001
0#
0'
#945001
1#
b01010000 &
1'
b01010000 *
#950001
0#
0'
#955001
1#
b01010001 &
1'
b01010001 *
#960001
0#
0'
#965001
1#
b01010010 &
1'
b01010010 *
#970001
0#
0'
#975001
1#
b01010011 &
1'
b01010011 *
#980001
0#
0'
#985001
1#
b01010100 &
1'
b01010100 *
#990001
0#
0'
#995001
1#
b01010101 &
1'
b01010101 *
#1000001
0#
0'
#1005001
1#
b01010110 &
1'
b01010110 *
#1010001
0#
0'
#1015001
1#
b01010111 &
1'
b01010111 *
#1020001
0#
0'
#1025001
1#
b01011000 &
1'
b01011000 *
#1030001
0#
0'
#1035001
1#
b01011001 &
1'
b01011001 *
#1040001
0#
0'
#1045001
1#
b01011010 &
1'
b01011010 *
#1050001
0#
0'
#1055001
1#
b01011011 &
1'
b01011011 *
#1060001
0#
0'
#1065001
1#
b01011100 &
1'
b01011100 *
#1070001
0#
0'
#1075001
1#
b01011101 &
1'
b01011101 *
#1080001
0#
0'
#1085001
1#
b01011110 &
1'
b01011110 *
#1090001
0#
0'
#1095001
1#
b01011111 &
1'
b01011111 *
#1100001
0#
0'
#1105001
1#
b01100000 &
1'
b01100000 *
#1110001
0#
0'
#1115001
1#
b01100001 &
1'
b01100001 *
#1120001
0#
0'
#1125001
1#
b01100010 &
1'
b01100010 *
#1130001
0#
0'
#1135001
1#
b01100011 &
1'
b01100011 *
#1140001
0#
0'
#1145001
1#
b01100100 &
1'
b01100100 *
#1150001
0#
0'
#1155001
1#
b01100101 &
1'
b01100101 *
#1160001
0#
0'
#1165001
1#
b01100110 &
1'
b01100110 *
#1170001
0#
0'
#1175001
1#
b01100111 &
1'
b01100111 *
#1180001
0#
0'
#1185001
1#
b01101000 &
1'
b01101000 *
#1190001
0#
0'
#1195001
1#
b01101001 &
1'
b01101001 *
#1200001
0#
0'
#1205001
1#
b01101010 &
1'
b01101010 *
#1210001
0#
0'
#1215001
1#
b01101011 &
1'
b01101011 *
#1220001
0#
0'
#1225001
1#
b01101100 &
1'
b01101100 *
#1230001
0#
0'
#1235001
1#
b01101101 &
1'
b01101101 *
#1240001
0#
0'
#1245001
1#
b01101110 &
1'
b01101110 *
#1250001
0#
0'
#1255001
1#
b01101111 &
1'
b01101111 *
#1260001
0#
0'
#1265001
1#
b01110000 &
1'
b01110000 *
#1270001
0#
0'
#1275001
1#
b01110001 &
1'
b01110001 *
#1280001
0#
0'
#1285001
1#
b01110010 &
1'
b01110010 *
#1290001
0#
0'
#1295001
1#
b01110011 &
1'
b01110011 *
#1300001
0#
0'
#1305001
1#
b01110100 &
1'
b01110100 *
#1310001
0#
0'
#1315001
1#
b01110101 &
1'
b01110101 *
#1320001
0#
0'
#1325001
1#
b01110110 &
1'
b01110110 *
#1330001
0#
0'
#1335001
1#
b01110111 &
1'
b01110111 *
#1340001
0#
0'
#1345001
1#
b01111000 &
1'
b01111000 *
#1350001
0#
0'
#1355001
1#
b01111001 &
1'
b01111001 *
#1360001
0#
0'
#1365001
1#
b01111010 &
1'
b01111010 *
#1370001
0#
0'
#1375001
1#
b01111011 &
1'
b01111011 *
#1380001
0#
0'
#1385001
1#
b01111100 &
1'
b01111100 *
#1390001
0#
0'
#1395001
1#
b01111101 &
1'
b01111101 *
#1400001
0#
0'
#1405001
1#
b01111110 &
1'
b01111110 *
#1410001
0#
0'
#1415001
1#
b01111111 &
1'
b01111111 *
#1420001
0#
0'
#1425001
1#
b10000000 &
1'
b10000000 *
#1430001
0#
0'
#1435001
1#
b10000001 &
1'
b10000001 *
#1440001
0#
0'
#1445001
1#
b10000010 &
1'
b10000010 *
#1450001
0#
0'
#1455001
1#
b10000011 &
1'
b10000011 *
#1460001
0#
0'
#1465001
1#
b10000100 &
1'
b10000100 *
#1470001
0#
0'
#1475001
1#
b10000101 &
1'
b10000101 *
#1480001
0#
0'
#1485001
1#
b10000110 &
1'
b10000110 *
#1490001
0#
0'
#1495001
1#
b10000111 &
1'
b10000111 *
#1500001
0#
0'
#1505001
1#
b10001000 &
1'
b10001000 *
#1510001
0#
0'
#1515001
1#
b10001001 &
1'
b10001001 *
#1520001
0#
0'
#1525001
1#
b10001010 &
1'
b10001010 *
#1530001
0#
0'
#1535001
1#
b10001011 &
1'
b10001011 *
#1540001
0#
0'
#1545001
1#
b10001100 &
1'
b10001100 *
#1550001
0#
0'
#1555001
1#
b10001101 &
1'
b10001101 *
#1560001
0#
0'
#1565001
1#
b10001110 &
1'
b10001110 *
#1570001
0#
0'
#1575001
1#
b10001111 &
1'
b10001111 *
#1580001
0#
0'
#1585001
1#
b10010000 &
1'
b10010000 *
#1590001
0#
0'
#1595001
1#
b10010001 &
1'
b10010001 *
#1600001
0#
0'
#1605001
1#
b10010010 &
1'
b10010010 *
#1610001
0#
0'
#1615001
1#
b10010011 &
1'
b10010011 *
#1620001
0#
0'
#1625001
1#
b10010100 &
1'
b10010100 *
#1630001
0#
0'
#1635001
1#
b10010101 &
1'
b10010101 *
#1640001
0#
0'
#1645001
1#
b10010110 &
1'
b10010110 *
#1650001
0#
0'
#1655001
1#
b10010111 &
1'
b10010111 *
#1660001
0#
0'
#1665001
1#
b10011000 &
1'
b10011000 *
#1670001
0#
0'
#1675001
1#
b10011001 &
1'
b10011001 *
#1680001
0#
0'
#1685001
1#
b10011010 &
1'
b10011010 *
#1690001
0#
0'
#1695001
1#
b10011011 &
1'
b10011011 *
#1700001
0#
0'
#1705001
1#
b10011100 &
1'
b10011100 *
#1710001
0#
0'
#1715001
1#
b10011101 &
1'
b10011101 *
#1720001
0#
0'
#1725001
1#
b10011110 &
1'
b10011110 *
#1730001
0#
0'
#1735001
1#
b10011111 &
1'
b10011111 *
#1740001
0#
0'
#1745001
1#
b10100000 &
1'
b10100000 *
#1750001
0#
0'
#1755001
1#
b10100001 &
1'
b10100001 *
#1760001
0#
0'
#1765001
1#
b10100010 &
1'
b10100010 *
#1770001
0#
0'
#1775001
1#
b10100011 &
1'
b10100011 *
#1780001
0#
0'
#1785001
1#
b10100100 &
1'
b10100100 *
#1790001
0#
0'
#1795001
1#
b10100101 &
1'
b10100101 *
#1800001
0#
0'
#1805001
1#
b10100110 &
1'
b10100110 *
#1810001
0#
0'
#1815001
1#
b10100111 &
1'
b10100111 *
#1820001
0#
0'
#1825001
1#
b10101000 &
1'
b10101000 *
#1830001
0#
0'
#1835001
1#
b10101001 &
1'
b10101001 *
#1840001
0#
0'
#1845001
1#
b10101010 &
1'
b10101010 *
#1850001
0#
0'
#1855001
1#
b10101011 &
1'
b10101011 *
#1860001
0#
0'
#1865001
1#
b10101100 &
1'
b10101100 *
#1870001
0#
0'
#1875001
1#
b10101101 &
1'
b10101101 *
#1880001
0#
0'
#1885001
1#
b10101110 &
1'
b10101110 *
#1890001
0#
0'
#1895001
1#
b10101111 &
1'
b10101111 *
#1900001
0#
0'
#1905001
1#
b10110000 &
1'
b10110000 *
#1910001
0#
0'
#1915001
1#
b10110001 &
1'
b10110001 *
#1920001
0#
0'
#1925001
1#
b10110010 &
1'
b10110010 *
#1930001
0#
0'
#1935001
1#
b10110011 &
1'
b10110011 *
#1940001
0#
0'
#1945001
1#
b10110100 &
1'
b10110100 *
#1950001
0#
0'
#1955001
1#
b10110101 &
1'
b10110101 *
#1960001
0#
0'
#1965001
1#
b10110110 &
1'
b10110110 *
#1970001
0#
0'
#1975001
1#
b10110111 &
1'
b10110111 *
#1980001
0#
0'
#1985001
1#
b10111000 &
1'
b10111000 *
#1990001
0#
0'
#1995001
1#
b10111001 &
1'
b10111001 *
#2000001
0#
0'
#2005001
1#
b10111010 &
1'
b10111010 *
#2010001
0#
0'
#2015001
1#
b10111011 &
1'
b10111011 *
#2020001
0#
0'
#2025001
1#
b10111100 &
1'
b10111100 *
#2030001
0#
0'
#2035001
1#
b10111101 &
1'
b10111101 *
#2040001
0#
0'
#2045001
1#
b10111110 &
1'
b10111110 *
#2050001
0#
0'
#2055001
1#
b10111111 &
1'
b10111111 *
#2060001
0#
0'
#2065001
1#
b11000000 &
1'
b11000000 *
#2070001
0#
0'
#2075001
1#
b11000001 &
1'
b11000001 *
#2080001
0#
0'
#2085001
1#
b11000010 &
1'
b11000010 *
#2090001
0#
0'
#2095001
1#
b11000011 &
1'
b11000011 *
#2100001
0#
0'
#2105001
1#
b11000100 &
1'
b11000100 *
#2110001
0#
0'
#2115001
1#
b11000101 &
1'
b11000101 *
#2120001
0#
0'
#2125001
1#
b11000110 &
1'
b11000110 *
#2130001
0#
0'
#2135001
1#
b11000111 &
1'
b11000111 *
#2140001
0#
0'
#2145001
1#
b11001000 &
1'
b11001000 *
#2150001
0#
0'
#2155001
1#
b11001001 &
1'
b11001001 *
#2160001
0#
0'
#2165001
1#
b11001010 &
1'
b11001010 *
#2170001
0#
0'
#2175001
1#
b11001011 &
1'
b11001011 *
#2180001
0#
0'
#2185001
1#
b11001100 &
1'
b11001100 *
#2190001
0#
0'
#2195001
1#
b11001101 &
1'
b11001101 *
#2200001
0#
0'
#2205001
1#
b11001110 &
1'
b11001110 *
#2210001
0#
0'
#2215001
1#
b11001111 &
1'
b11001111 *
#2220001
0#
0'
#2225001
1#
b11010000 &
1'
b11010000 *
#2230001
0#
0'
#2235001
1#
b11010001 &
1'
b11010001 *
#2240001
0#
0'
#2245001
1#
b11010010 &
1'
b11010010 *
#2250001
0#
0'
#2255001
1#
b11010011 &
1'
b11010011 *
#2260001
0#
0'
#2265001
1#
b11010100 &
1'
b11010100 *
#2270001
0#
0'
#2275001
1#
b11010101 &
1'
b11010101 *
#2280001
0#
0'
#2285001
1#
b11010110 &
1'
b11010110 *
#2290001
0#
0'
#2295001
1#
b11010111 &
1'
b11010111 *
#2300001
0#
0'
#2305001
1#
b11011000 &
1'
b11011000 *
#2310001
0#
0'
#2315001
1#
b11011001 &
1'
b11011001 *
#2320001
0#
0'
#2325001
1#
b11011010 &
1'
b11011010 *
#2330001
0#
0'
#2335001
1#
b11011011 &
1'
b11011011 *
#2340001
0#
0'
#2345001
1#
b11011100 &
1'
b11011100 *
#2350001
0#
0'
#2355001
1#
b11011101 &
1'
b11011101 *
#2360001
0#
0'
#2365001
1#
b11011110 &
1'
b11011110 *
#2370001
0#
0'
#2375001
1#
b11011111 &
1'
b11011111 *
#2380001
0#
0'
#2385001
1#
b11100000 &
1'
b11100000 *
#2390001
0#
0'
#2395001
1#
b11100001 &
1'
b11100001 *
#2400001
0#
0'
#2405001
1#
b11100010 &
1'
b11100010 *
#2410001
0#
0'
#2415001
1#
b11100011 &
1'
b11100011 *
#2420001
0#
0'
#2425001
1#
b11100100 &
1'
b11100100 *
#2430001
0#
0'
#2435001
1#
b11100101 &
1'
b11100101 *
#2440001
0#
0'
#2445001
1#
b11100110 &
1'
b11100110 *
#2450001
0#
0'
#2455001
1#
b11100111 &
1'
b11100111 *
#2460001
0#
0'
#2465001
1#
b11101000 &
1'
b11101000 *
#2470001
0#
0'
#2475001
1#
b11101001 &
1'
b11101001 *
#2480001
0#
0'
#2485001
1#
b11101010 &
1'
b11101010 *
#2490001
0#
0'
#2495001
1#
b11101011 &
1'
b11101011 *
#2500001
0#
0'
#2505001
1#
b11101100 &
1'
b11101100 *
#2510001
0#
0'
#2515001
1#
b11101101 &
1'
b11101101 *
#2520001
0#
0'
#2525001
1#
b11101110 &
1'
b11101110 *
#2530001
0#
0'
#2535001
1#
b11101111 &
1'
b11101111 *
#2540001
0#
0'
#2545001
1#
b11110000 &
1'
b11110000 *
#2550001
0#
0'
#2555001
1#
b11110001 &
1'
b11110001 *
#2560001
0#
0'
#2565001
1#
b11110010 &
1'
b11110010 *
#2570001
0#
0'
#2575001
1#
b11110011 &
1'
b11110011 *
#2580001
0#
0'
#2585001
1#
b11110100 &
1'
b11110100 *
#2590001
0#
0'
#2595001
1#
b11110101 &
1'
b11110101 *
#2600001
0#
0'
#2605001
1#
b11110110 &
1'
b11110110 *
#2610001
0#
0'
#2615001
1#
b11110111 &
1'
b11110111 *
#2620001
0#
0'
#2625001
1#
b11111000 &
1'
b11111000 *
#2630001
0#
0'
#2635001
1#
b11111001 &
1'
b11111001 *
#2640001
0#
0'
#2645001
1#
b11111010 &
1'
b11111010 *
#2650001
0#
0'
#2655001
1#
b11111011 &
1'
b11111011 *
#2660001
0#
0'
#2665001
1#
b11111100 &
1'
b11111100 *
#2670001
0#
0'
#2675001
1#
b11111101 &
1'
b11111101 *
#2680001
0#
0'
#2685001
1#
b11111110 &
1'
b11111110 *
#2690001
0#
0'
#2695001
1#
b11111111 &
1'
b11111111 *
#2700001
0#
0'
#2705001
1#
b00000000 &
1'
b00000000 *
#2710001
0#
0'
#2715001
1#
b00000001 &
1'
b00000001 *
